mc15_13TeV.308470.MadGraphPythia8_A14NNPDF23LO_rho_Wpi_lvqq.merge.DAOD_JETM2.e5914_a766_a821_r7676_p2952
mc15_13TeV.308471.MadGraphPythia8_A14NNPDF23LO_rho_Wpi_lvqq.merge.DAOD_JETM2.e5914_a766_a821_r7676_p2952
mc15_13TeV.308472.MadGraphPythia8_A14NNPDF23LO_rho_Wpi_lvqq.merge.DAOD_JETM2.e5914_a766_a821_r7676_p2952
mc15_13TeV.308473.MadGraphPythia8_A14NNPDF23LO_rho_Wpi_lvqq.merge.DAOD_JETM2.e5914_a766_a821_r7676_p2952
mc15_13TeV.308474.MadGraphPythia8_A14NNPDF23LO_rho_Wpi_lvqq.merge.DAOD_JETM2.e5914_a766_a821_r7676_p2952
mc15_13TeV.308475.MadGraphPythia8_A14NNPDF23LO_rho_Wpi_lvqq.merge.DAOD_JETM2.e5914_a766_a821_r7676_p2952
mc15_13TeV.308476.MadGraphPythia8_A14NNPDF23LO_rho_Wpi_lvqq.merge.DAOD_JETM2.e5914_a766_a821_r7676_p2952
mc15_13TeV.308477.MadGraphPythia8_A14NNPDF23LO_rho_Wpi_lvqq.merge.DAOD_JETM2.e5914_a766_a821_r7676_p2952
mc15_13TeV.308478.MadGraphPythia8_A14NNPDF23LO_rho_Wpi_lvqq.merge.DAOD_JETM2.e5914_a766_a821_r7676_p2952
mc15_13TeV.308479.MadGraphPythia8_A14NNPDF23LO_rho_Wpi_lvqq.merge.DAOD_JETM2.e5914_a766_a821_r7676_p2952
mc15_13TeV.308480.MadGraphPythia8_A14NNPDF23LO_rho_Wpi_lvqq.merge.DAOD_JETM2.e5914_a766_a821_r7676_p2952
mc15_13TeV.308481.MadGraphPythia8_A14NNPDF23LO_rho_Wpi_lvqq.merge.DAOD_JETM2.e5914_a766_a821_r7676_p2952
mc15_13TeV.308482.MadGraphPythia8_A14NNPDF23LO_rho_Wpi_lvqq.merge.DAOD_JETM2.e5914_a766_a821_r7676_p2952
mc15_13TeV.308483.MadGraphPythia8_A14NNPDF23LO_rho_Wpi_lvqq.merge.DAOD_JETM2.e5914_a766_a821_r7676_p2952
mc15_13TeV.308484.MadGraphPythia8_A14NNPDF23LO_rho_Wpi_lvqq.merge.DAOD_JETM2.e5914_a766_a821_r7676_p2952
mc15_13TeV.308485.MadGraphPythia8_A14NNPDF23LO_rho_Wpi_lvqq.merge.DAOD_JETM2.e5914_a766_a821_r7676_p2952
