mc16_13TeV:mc16_13TeV.308486.Pythia8EvtGen_A14NNPDF23LO_Wprime500_Zprime250.merge.AOD.e5914_e5984_s3126_r9364_r9315
mc16_13TeV:mc16_13TeV.308487.Pythia8EvtGen_A14NNPDF23LO_Wprime750_Zprime500.merge.AOD.e5914_e5984_s3126_r9364_r9315
mc16_13TeV:mc16_13TeV.308488.Pythia8EvtGen_A14NNPDF23LO_Wprime1250_Zprime1000.merge.AOD.e5914_e5984_s3126_r9364_r9315
mc16_13TeV:mc16_13TeV.308489.Pythia8EvtGen_A14NNPDF23LO_Wprime2250_Zprime2000.merge.AOD.e5914_e5984_s3126_r9364_r9315
mc16_13TeV:mc16_13TeV.308490.Pythia8EvtGen_A14NNPDF23LO_Wprime3250_Zprime3000.merge.AOD.e5914_e5984_s3126_r9364_r9315
mc16_13TeV:mc16_13TeV.308491.Pythia8EvtGen_A14NNPDF23LO_Wprime4250_Zprime4000.merge.AOD.e5914_e5984_s3126_r9364_r9315
mc16_13TeV:mc16_13TeV.308492.Pythia8EvtGen_A14NNPDF23LO_Wprime5250_Zprime5000.merge.AOD.e5914_e5984_s3126_r9364_r9315
mc16_13TeV:mc16_13TeV.308493.Pythia8EvtGen_A14NNPDF23LO_Wprime6250_Zprime6000.merge.AOD.e5914_e5984_s3126_r9364_r9315
mc16_13TeV:mc16_13TeV.308494.Pythia8EvtGen_A14NNPDF23LO_Wprime6750_Zprime6500.merge.AOD.e5914_e5984_s3126_r9364_r9315
mc16_13TeV:mc16_13TeV.308495.Pythia8EvtGen_A14NNPDF23LO_Wprime7000_Zprime6750.merge.AOD.e5914_e5984_s3126_r9364_r9315
