#mc15_13TeV.301859.MGPy8EG_dmA_dijet_mR1000_mDM10000_gSM0p10_gDM1p50.merge.AOD.e4528_s2726_r6869_r6282
#mc15_13TeV.301860.MGPy8EG_dmA_dijet_mR1000_mDM10000_gSM0p20_gDM1p50.merge.AOD.e4528_s2726_r6869_r6282
#mc15_13TeV.301861.MGPy8EG_dmA_dijet_mR1000_mDM10000_gSM0p30_gDM1p50.merge.AOD.e4528_s2726_r6869_r6282
#mc15_13TeV.301862.MGPy8EG_dmA_dijet_mR1500_mDM10000_gSM0p10_gDM1p50.merge.AOD.e4528_s2726_r6869_r6282
#mc15_13TeV.301863.MGPy8EG_dmA_dijet_mR1500_mDM10000_gSM0p20_gDM1p50.merge.AOD.e4528_s2726_r6869_r6282
#mc15_13TeV.301864.MGPy8EG_dmA_dijet_mR1500_mDM10000_gSM0p30_gDM1p50.merge.AOD.e4528_s2726_r6869_r6282
#mc15_13TeV.301865.MGPy8EG_dmA_dijet_mR2000_mDM10000_gSM0p10_gDM1p50.merge.AOD.e4528_s2726_r6869_r6282
#mc15_13TeV.301866.MGPy8EG_dmA_dijet_mR2000_mDM10000_gSM0p20_gDM1p50.merge.AOD.e4528_s2726_r6869_r6282
#mc15_13TeV.301867.MGPy8EG_dmA_dijet_mR2000_mDM10000_gSM0p30_gDM1p50.merge.AOD.e4528_s2726_r6869_r6282
#mc15_13TeV.301868.MGPy8EG_dmA_dijet_mR2000_mDM10000_gSM0p40_gDM1p50.merge.AOD.e4528_s2726_r6869_r6282
#mc15_13TeV.301869.MGPy8EG_dmA_dijet_mR2500_mDM10000_gSM0p20_gDM1p50.merge.AOD.e4528_s2726_r6869_r6282
#mc15_13TeV.301870.MGPy8EG_dmA_dijet_mR2500_mDM10000_gSM0p30_gDM1p50.merge.AOD.e4528_s2726_r6869_r6282
#mc15_13TeV.301871.MGPy8EG_dmA_dijet_mR2500_mDM10000_gSM0p40_gDM1p50.merge.AOD.e4528_s2726_r6869_r6282
#mc15_13TeV.301872.MGPy8EG_dmA_dijet_mR2500_mDM10000_gSM0p50_gDM1p50.merge.AOD.e4528_s2726_r6869_r6282
#mc15_13TeV.301873.MGPy8EG_dmA_dijet_mR2500_mDM10000_gSM0p60_gDM1p50.merge.AOD.e4528_s2726_r6869_r6282
#mc15_13TeV.301874.MGPy8EG_dmA_dijet_mR3000_mDM10000_gSM0p40_gDM1p50.merge.AOD.e4528_s2726_r6869_r6282
#mc15_13TeV.301875.MGPy8EG_dmA_dijet_mR3000_mDM10000_gSM0p50_gDM1p50.merge.AOD.e4528_s2726_r6869_r6282
#mc15_13TeV.301876.MGPy8EG_dmA_dijet_mR3000_mDM10000_gSM0p60_gDM1p50.merge.AOD.e4528_s2726_r6869_r6282
#mc15_13TeV.301877.MGPy8EG_dmA_dijet_mR3000_mDM10000_gSM0p70_gDM1p50.merge.AOD.e4528_s2726_r6869_r6282
#mc15_13TeV.301878.MGPy8EG_dmA_dijet_mR3000_mDM10000_gSM0p80_gDM1p50.merge.AOD.e4528_s2726_r6869_r6282
#mc15_13TeV.301879.MGPy8EG_dmA_dijet_mR3500_mDM10000_gSM0p70_gDM1p50.merge.AOD.e4528_s2726_r6869_r6282
#mc15_13TeV.301880.MGPy8EG_dmA_dijet_mR3500_mDM10000_gSM0p80_gDM1p50.merge.AOD.e4528_s2726_r6869_r6282
#mc15_13TeV.301881.MGPy8EG_dmA_dijet_mR3500_mDM10000_gSM0p90_gDM1p50.merge.AOD.e4528_s2726_r6869_r6282
#mc15_13TeV.301882.MGPy8EG_dmA_dijet_mR3500_mDM10000_gSM1p00_gDM1p50.merge.AOD.e4528_s2726_r6869_r6282
#mc15_13TeV.304663.MGPy8EG_N30LO_A14N23LO_dmA_dijet_mR2p5_mDM10_gSM0p10_gDM1p50.merge.AOD.e4550_s2726_r6869_r6282
#mc15_13TeV.304664.MGPy8EG_N30LO_A14N23LO_dmA_dijet_mR3p0_mDM10_gSM0p10_gDM1p50.merge.AOD.e4550_s2726_r6869_r6282
#mc15_13TeV.304665.MGPy8EG_N30LO_A14N23LO_dmA_dijet_mR3p0_mDM10_gSM0p20_gDM1p50.merge.AOD.e4550_s2726_r6869_r6282
#mc15_13TeV.304666.MGPy8EG_N30LO_A14N23LO_dmA_dijet_mR3p0_mDM10_gSM0p30_gDM1p50.merge.AOD.e4550_s2726_r6869_r6282
#mc15_13TeV.304667.MGPy8EG_N30LO_A14N23LO_dmA_dijet_mR3p5_mDM10_gSM0p10_gDM1p50.merge.AOD.e4550_s2726_r6869_r6282
#mc15_13TeV.304668.MGPy8EG_N30LO_A14N23LO_dmA_dijet_mR3p5_mDM10_gSM0p20_gDM1p50.merge.AOD.e4550_s2726_r6869_r6282
mc15_13TeV.304669.MGPy8EG_N30LO_A14N23LO_dmA_dijet_mR3p5_mDM10_gSM0p30_gDM1p50.merge.AOD.e4550_s2726_r6869_r6282
#mc15_13TeV.304670.MGPy8EG_N30LO_A14N23LO_dmA_dijet_mR3p5_mDM10_gSM0p40_gDM1p50.merge.AOD.e4550_s2726_r6869_r6282
#mc15_13TeV.304671.MGPy8EG_N30LO_A14N23LO_dmA_dijet_mR3p5_mDM10_gSM0p50_gDM1p50.merge.AOD.e4550_s2726_r6869_r6282
#mc15_13TeV.304672.MGPy8EG_N30LO_A14N23LO_dmA_dijet_mR3p5_mDM10_gSM0p60_gDM1p50.merge.AOD.e4550_s2726_r6869_r6282
